…
``` r
library(linkET)
## matrix_data
matrix_data(list(mtcars = mtcars))
#> A matrix data object:
#> Number:  1 
#> Names:  mtcars 
#> Dimensions:  32 rows, 11 columns
#> Row names:  Mazda RX4, Mazda RX4 Wag, Datsun 710, Hornet 4 Drive, Hor... 
#> Column names:  mpg, cyl, disp, hp, drat, wt, qsec, vs, am, gear, carb

## md_tbl
matrix_data(list(mtcars = mtcars)) %>% 
  as_md_tbl()
#> # A tibble: 352 × 3
#>    .rownames         .colnames mtcars
#>  * <chr>             <chr>      <dbl>
#>  1 Mazda RX4         mpg         21  
#>  2 Mazda RX4 Wag     mpg         21  
#>  3 Datsun 710        mpg         22.8
#>  4 Hornet 4 Drive    mpg         21.4
#>  5 Hornet Sportabout mpg         18.7
#>  6 Valiant           mpg         18.1
#>  7 Duster 360        mpg         14.3
#>  8 Merc 240D         mpg         24.4
#>  9 Merc 230          mpg         22.8
#> 10 Merc 280          mpg         19.2
#> # … with 342 more rows

## as method
as_matrix_data(mtcars)
#> A matrix data object:
#> Number:  1 
#> Names:  mtcars 
#> Dimensions:  32 rows, 11 columns
#> Row names:  Mazda RX4, Mazda RX4 Wag, Datsun 710, Hornet 4 Drive, Hor... 
#> Column names:  mpg, cyl, disp, hp, drat, wt, qsec, vs, am, gear, carb

as_md_tbl(mtcars)
#> # A tibble: 352 × 3
#>    .rownames         .colnames mtcars
#>  * <chr>             <chr>      <dbl>
#>  1 Mazda RX4         mpg         21  
#>  2 Mazda RX4 Wag     mpg         21  
#>  3 Datsun 710        mpg         22.8
#>  4 Hornet 4 Drive    mpg         21.4
#>  5 Hornet Sportabout mpg         18.7
#>  6 Valiant           mpg         18.1
#>  7 Duster 360        mpg         14.3
#>  8 Merc 240D         mpg         24.4
#>  9 Merc 230          mpg         22.8
#> 10 Merc 280          mpg         19.2
#> # … with 342 more rows

## special function for correlation matrix
correlate(mtcars) %>% 
  as_matrix_data()
#> A matrix data object:
#> Number:  2 
#> Names:  r, p 
#> Dimensions:  11 rows, 11 columns
#> Row names:  mpg, cyl, disp, hp, drat, wt, qsec, vs, am, gear, carb 
#> Column names:  mpg, cyl, disp, hp, drat, wt, qsec, vs, am, gear, carb

correlate(mtcars) %>% 
  as_md_tbl()
#> # A tibble: 121 × 4
#>    .rownames .colnames      r        p
#>  * <chr>     <chr>      <dbl>    <dbl>
#>  1 mpg       mpg        1     0       
#>  2 cyl       mpg       -0.852 6.11e-10
#>  3 disp      mpg       -0.848 9.38e-10
#>  4 hp        mpg       -0.776 1.79e- 7
#>  5 drat      mpg        0.681 1.78e- 5
#>  6 wt        mpg       -0.868 1.29e-10
#>  7 qsec      mpg        0.419 1.71e- 2
#>  8 vs        mpg        0.664 3.42e- 5
#>  9 am        mpg        0.600 2.85e- 4
#> 10 gear      mpg        0.480 5.40e- 3
#> # … with 111 more rows
```
…
